data_cantilever/A0001CH1.CSV

Memory Length,4000,
Trigger Level,0.00000e+00,
Source,CH1,
Probe,5.0X,
Vertical Units,V,
Vertical Scale,1.00000e+01,
Vertical Position,3.20000e+00,
Horizontal Units,S,
Horizontal Scale,5.00000e-05,
Horizontal Position,0.0000000e+00,
Horizontal Mode,Main,
Sampling Period,2.00000e-07,
Firmware,V1.12,
Time, ,
Mode,Fast,
Waveform Data,
-3,
-3,
-3,
-4,
-5,
-4,
-5,
-4,
-4,
-5,
-5,
-6,
-6,
-5,
-5,
-6,
-6,
-5,
-5,
-6,
-5,
-4,
-5,
-4,
-3,
-3,
-3,
-2,
-3,
-3,
-3,
-3,
-2,
-1,
1,
1,
3,
6,
7,
12,
15,
16,
16,
14,
14,
14,
13,
13,
14,
13,
12,
11,
10,
6,
2,
2,
-1,
-3,
-4,
-5,
-5,
-5,
-5,
-5,
-4,
-4,
-3,
-1,
0,
0,
-2,
-1,
-2,
-2,
-3,
-3,
-3,
-5,
-5,
-6,
-6,
-6,
-5,
-3,
-1,
3,
6,
8,
13,
15,
16,
18,
17,
16,
14,
13,
12,
10,
9,
7,
5,
4,
2,
-1,
-3,
-4,
-5,
-6,
-6,
-5,
-4,
-4,
-4,
-4,
-4,
-5,
-6,
-5,
-1,
3,
5,
10,
14,
15,
19,
21,
23,
23,
23,
22,
21,
20,
20,
19,
18,
16,
14,
13,
11,
7,
7,
5,
3,
1,
-2,
-2,
-2,
-3,
-4,
-5,
-4,
-5,
-6,
-6,
-6,
-5,
-6,
-5,
-5,
-3,
-3,
-2,
-1,
-2,
-3,
-3,
-3,
-5,
-5,
-6,
-6,
-5,
-3,
-2,
-2,
-2,
-3,
-4,
-5,
-5,
-5,
-6,
-6,
-5,
-5,
-5,
-5,
-6,
-6,
-5,
-4,
-3,
-2,
1,
2,
3,
3,
4,
3,
3,
4,
3,
3,
2,
-1,
0,
2,
4,
7,
8,
11,
13,
14,
15,
16,
17,
14,
13,
11,
10,
8,
6,
4,
1,
-3,
-4,
-5,
-6,
-5,
-3,
-1,
2,
6,
10,
10,
10,
10,
12,
13,
12,
11,
8,
5,
4,
3,
2,
1,
0,
-3,
-5,
-5,
-6,
-5,
-3,
-3,
-3,
-2,
-2,
-2,
-2,
-3,
-3,
-5,
-5,
-6,
-6,
-6,
-6,
-6,
-6,
-6,
-6,
-5,
-5,
-5,
-5,
-6,
-5,
-5,
-6,
-5,
-5,
-5,
-5,
-4,
-4,
-5,
-5,
-6,
-6,
-6,
-6,
-6,
-6,
-5,
-5,
-4,
-3,
-2,
-2,
-2,
-1,
-2,
-2,
-1,
-2,
-2,
-2,
-3,
-3,
-3,
-3,
-3,
-3,
-3,
-3,
-3,
-1,
-2,
-2,
-3,
-5,
-5,
-6,
-5,
-5,
-6,
-6,
-6,
-6,
-5,
-5,
-4,
-4,
-4,
-5,
-4,
-2,
0,
2,
2,
4,
4,
2,
1,
1,
-1,
-4,
-5,
-5,
-5,
-6,
-6,
-6,
-6,
-6,
-5,
-6,
-5,
-6,
-6,
-6,
-6,
-6,
-5,
-6,
-6,
-5,
-3,
-2,
-1,
0,
1,
2,
3,
4,
4,
4,
4,
4,
4,
5,
4,
4,
1,
-2,
-3,
-3,
-4,
-5,
-5,
-6,
-6,
-5,
-6,
-5,
-6,
-6,
-6,
-5,
-6,
-6,
-6,
-5,
-6,
-6,
-6,
-6,
-6,
-6,
-6,
-6,
-6,
-5,
-5,
-5,
-5,
-4,
-4,
-5,
-4,
-3,
-2,
-1,
1,
0,
1,
1,
-1,
-3,
-5,
-6,
-6,
-5,
-5,
-5,
-3,
-2,
-2,
-1,
-1,
-1,
1,
2,
1,
0,
1,
2,
4,
3,
3,
1,
0,
-1,
-3,
-4,
-5,
-5,
-6,
-6,
-6,
-5,
-5,
-5,
-4,
-4,
-4,
-2,
-2,
1,
1,
3,
6,
9,
11,
11,
11,
10,
7,
6,
4,
2,
0,
0,
-1,
-3,
-4,
-5,
-6,
-6,
-6,
-6,
-6,
-6,
-6,
-6,
-3,
0,
2,
8,
10,
14,
20,
22,
19,
17,
14,
12,
8,
5,
4,
1,
-1,
-3,
-3,
-4,
-5,
-5,
-5,
-5,
-4,
-4,
-5,
-6,
-6,
-6,
-6,
-5,
-4,
-4,
-3,
-2,
-2,
-3,
-2,
-2,
-2,
-3,
-3,
-4,
-4,
-4,
-5,
-4,
-5,
-5,
-5,
-4,
-5,
-5,
-6,
-6,
-6,
-6,
-6,
-6,
-6,
-5,
-6,
-5,
-5,
-4,
-2,
0,
2,
3,
4,
3,
2,
0,
-1,
-3,
-5,
-6,
-6,
-5,
-5,
-5,
-5,
-4,
-5,
-5,
-5,
-5,
-5,
-5,
-5,
-5,
-4,
-4,
-3,
-3,
-3,
-3,
-2,
-2,
-1,
-1,
1,
0,
0,
-2,
-3,
-3,
-5,
-6,
-6,
-6,
-5,
-1,
1,
4,
7,
14,
17,
20,
23,
26,
26,
21,
18,
15,
12,
8,
5,
4,
2,
-1,
-2,
-4,
-4,
-6,
-6,
-6,
-6,
-6,
-6,
-6,
-6,
-6,
-7,
-6,
-5,
-4,
-3,
-2,
-3,
-2,
-3,
-3,
-3,
-3,
-4,
-5,
-3,
-3,
-1,
0,
1,
1,
1,
-3,
-5,
-5,
-6,
-6,
-6,
-6,
-5,
-4,
-3,
-2,
-1,
2,
1,
1,
0,
-1,
-1,
-2,
-2,
-3,
-3,
-5,
-5,
-6,
-6,
-6,
-6,
-6,
-7,
-6,
-6,
-6,
-6,
-6,
-5,
-5,
-4,
-4,
-5,
-6,
-5,
-5,
-6,
-5,
-4,
-1,
1,
3,
5,
5,
1,
-2,
-4,
-6,
-6,
-7,
-6,
-7,
-6,
-6,
-6,
-6,
-6,
-5,
-5,
-5,
-5,
-5,
-5,
-4,
-5,
-6,
-6,
-5,
-6,
-6,
-6,
-5,
-5,
-4,
-5,
-6,
-6,
-5,
-5,
-3,
1,
1,
2,
5,
7,
7,
10,
12,
13,
13,
12,
9,
7,
5,
3,
1,
-1,
-1,
-1,
0,
-1,
-1,
-1,
-1,
-3,
-3,
-5,
-6,
-5,
-6,
-6,
-5,
-5,
-2,
1,
4,
7,
8,
11,
13,
13,
13,
12,
8,
5,
1,
-1,
-2,
-3,
-4,
-5,
-5,
-5,
-6,
-6,
-6,
-6,
-4,
-4,
-3,
-2,
-1,
-1,
1,
7,
9,
16,
18,
20,
22,
21,
18,
14,
10,
6,
-1,
-3,
-5,
-6,
-6,
-5,
-6,
-6,
-4,
-5,
-3,
-2,
-1,
1,
2,
4,
4,
3,
2,
-2,
-2,
-4,
-4,
-5,
-6,
-5,
-6,
-6,
-6,
-6,
-6,
-5,
-6,
-6,
-6,
-6,
-6,
-6,
-5,
-5,
-4,
-4,
-4,
-4,
-5,
-5,
-6,
-5,
-6,
-6,
-7,
-6,
-6,
-6,
-6,
-6,
-6,
-6,
-6,
-5,
-6,
-6,
-6,
-6,
-5,
-5,
-5,
-4,
-5,
-5,
-5,
-6,
-6,
-6,
-6,
-6,
-6,
-6,
-6,
-5,
-5,
-4,
-4,
-3,
-2,
-2,
-1,
0,
2,
3,
5,
2,
1,
0,
-3,
-4,
-5,
-5,
-6,
-6,
-7,
-6,
-6,
-6,
-6,
-5,
-4,
-3,
-1,
0,
1,
1,
2,
2,
3,
4,
8,
10,
11,
12,
12,
11,
9,
5,
1,
-2,
-3,
-5,
-6,
-6,
-6,
-6,
-6,
-6,
-6,
-6,
-7,
-6,
-6,
-6,
-5,
-5,
-3,
-3,
-2,
-1,
-1,
0,
1,
1,
-1,
-1,
0,
2,
0,
-1,
-2,
-2,
-3,
-3,
-3,
-2,
-3,
-2,
-2,
-2,
-3,
-3,
-3,
-3,
-3,
-4,
-4,
-5,
-6,
-6,
-6,
-5,
-4,
-5,
-5,
-5,
-6,
-6,
-5,
-5,
-5,
-4,
-5,
-4,
-5,
-5,
-6,
-6,
-6,
-6,
-6,
-6,
-6,
-5,
-5,
-5,
-5,
-3,
0,
2,
3,
3,
2,
1,
1,
0,
1,
0,
-2,
-2,
-3,
-4,
-5,
-4,
-4,
-5,
-5,
-6,
-6,
-6,
-6,
-6,
-5,
-5,
-5,
-6,
-6,
-6,
-6,
-6,
-5,
-5,
-5,
-5,
-4,
-5,
-4,
-3,
-2,
-1,
1,
1,
1,
2,
3,
2,
1,
0,
0,
-1,
-1,
-1,
-2,
-2,
-3,
-5,
-5,
-5,
-5,
-6,
-6,
-5,
-5,
-7,
-5,
-5,
-5,
-4,
-3,
-2,
-1,
1,
1,
1,
1,
1,
0,
-2,
-3,
-5,
-6,
-6,
-6,
-6,
-6,
-6,
-6,
-6,
-5,
-5,
-5,
-5,
-4,
-4,
-5,
-4,
-4,
-4,
-4,
-3,
-3,
-3,
-4,
-5,
-5,
-5,
-5,
-6,
-5,
-6,
-6,
-6,
-5,
-5,
-4,
-5,
-5,
-6,
-6,
-6,
-6,
-6,
-6,
-6,
-5,
-4,
-4,
-3,
-3,
-3,
-3,
-2,
-1,
2,
2,
3,
3,
3,
3,
4,
5,
7,
8,
8,
7,
3,
1,
-2,
-4,
-5,
-5,
-6,
-5,
-6,
-6,
-6,
-6,
-6,
-5,
-4,
-5,
-4,
-3,
-3,
-2,
-2,
-3,
-3,
-3,
-2,
-2,
-2,
-2,
-2,
-1,
-2,
-2,
-3,
-3,
-3,
-3,
-3,
-4,
-4,
-4,
-5,
-6,
-6,
-5,
-6,
-6,
-5,
-5,
-6,
-5,
-7,
-6,
-6,
-6,
-6,
-6,
-5,
-6,
-6,
-6,
-6,
-6,
-6,
-6,
-6,
-6,
-5,
-5,
-6,
-5,
-5,
-5,
-5,
-4,
-4,
-4,
-4,
-3,
-3,
-3,
-3,
-3,
-3,
-3,
-4,
-5,
-5,
-6,
-5,
-5,
-6,
-6,
-6,
-5,
-4,
-3,
-3,
-3,
-2,
-2,
-2,
-2,
-2,
-1,
-1,
-1,
-1,
0,
2,
1,
-1,
-1,
-2,
-3,
-4,
-5,
-6,
-6,
-5,
-6,
-6,
-6,
-5,
-6,
-6,
-6,
-5,
-6,
-6,
-5,
-5,
-6,
-5,
-6,
-6,
-6,
-5,
-5,
-3,
-2,
-1,
0,
1,
1,
1,
1,
2,
3,
4,
3,
2,
1,
-2,
-4,
-6,
-6,
-5,
-5,
-5,
-4,
-5,
-3,
-3,
-2,
-1,
-1,
-1,
-2,
-3,
-5,
-5,
-5,
-6,
-6,
-6,
-6,
-6,
-6,
-5,
-6,
-5,
-5,
-6,
-6,
-6,
-5,
-6,
-6,
-5,
-5,
-4,
-4,
-3,
-3,
-3,
-3,
-3,
-3,
-3,
-5,
-5,
-5,
-6,
-6,
-6,
-6,
-6,
-5,
-5,
-4,
-3,
-4,
-4,
-3,
-4,
-5,
-7,
-6,
-6,
-5,
-6,
-5,
-6,
-5,
-6,
-5,
-6,
-5,
-6,
-6,
-6,
-6,
-6,
-6,
-6,
-7,
-6,
-6,
-4,
-3,
-1,
1,
2,
2,
4,
2,
2,
1,
-1,
-4,
-4,
-6,
-6,
-5,
-4,
-2,
-1,
1,
2,
4,
4,
3,
2,
1,
-1,
-2,
-2,
-2,
-2,
-2,
-2,
-2,
-1,
-2,
-2,
-2,
-3,
-2,
-2,
-1,
-2,
-3,
-3,
-2,
-2,
-2,
-1,
-2,
-3,
-5,
-6,
-5,
-5,
-4,
-3,
-2,
1,
3,
4,
7,
9,
9,
10,
12,
10,
11,
11,
10,
8,
5,
4,
3,
2,
1,
1,
-1,
-3,
-3,
-3,
-5,
-5,
-6,
-6,
-5,
-4,
-5,
-5,
-4,
-4,
-4,
-3,
-3,
-2,
-1,
0,
2,
2,
0,
-1,
-3,
-3,
-5,
-5,
-5,
-5,
-5,
-5,
-5,
-5,
-5,
-5,
-5,
-5,
-6,
-4,
-3,
-3,
-3,
1,
2,
7,
9,
12,
17,
18,
23,
26,
26,
26,
28,
27,
25,
20,
13,
10,
6,
5,
4,
4,
4,
4,
2,
3,
4,
5,
7,
9,
10,
9,
10,
12,
11,
8,
5,
4,
3,
1,
0,
-1,
-3,
-3,
-4,
-5,
-6,
-6,
-6,
-6,
-6,
-6,
-6,
-5,
-6,
-5,
-4,
-5,
-3,
-3,
-2,
-2,
-3,
-3,
-3,
-4,
-3,
-4,
-5,
-6,
-6,
-6,
-6,
-6,
-6,
-6,
-5,
-4,
-4,
-4,
-5,
-4,
-4,
-5,
-5,
-5,
-6,
-5,
-6,
-6,
-5,
-5,
-4,
-4,
-4,
-3,
0,
1,
2,
3,
4,
4,
4,
3,
3,
3,
2,
2,
1,
1,
-1,
-3,
-4,
-4,
-5,
-5,
-6,
-6,
-6,
-5,
-6,
-6,
-6,
-6,
-6,
-6,
-6,
-6,
-5,
-4,
-3,
-3,
-3,
-3,
-2,
-2,
-2,
-2,
-3,
-3,
-4,
-6,
-6,
-6,
-6,
-6,
-6,
-6,
-6,
-6,
-6,
-6,
-6,
-6,
-5,
-6,
-6,
-5,
-4,
-4,
-3,
-2,
-2,
-2,
-3,
-4,
-5,
-6,
-5,
-5,
-6,
-6,
-6,
-6,
-6,
-6,
-4,
-4,
-3,
-2,
-1,
0,
1,
0,
-1,
-3,
-4,
-4,
-6,
-6,
-6,
-6,
-6,
-6,
-6,
-5,
-6,
-6,
-6,
-6,
-6,
-6,
-6,
-6,
-7,
-6,
-6,
-6,
-5,
-6,
-6,
-5,
-5,
-5,
-5,
-6,
-6,
-6,
-6,
-5,
-5,
-4,
-5,
-5,
-5,
-6,
-6,
-6,
-6,
-6,
-5,
-4,
-3,
-2,
-3,
-3,
-4,
-3,
-4,
-4,
-5,
-5,
-5,
-5,
-5,
-4,
-4,
-3,
-2,
-1,
2,
4,
5,
5,
8,
8,
7,
5,
4,
4,
3,
1,
-2,
-4,
-5,
-5,
-5,
-5,
-5,
-5,
-5,
-6,
-6,
-5,
-6,
-5,
-5,
-4,
-3,
-2,
-1,
-1,
0,
2,
3,
4,
5,
5,
5,
4,
5,
4,
3,
1,
0,
-2,
-3,
-3,
-4,
-3,
-4,
-5,
-6,
-6,
-6,
-6,
-5,
-6,
-6,
-6,
-5,
-5,
-3,
-3,
-3,
-2,
-2,
-2,
-2,
-2,
-3,
-3,
-3,
-3,
-2,
-2,
-2,
-2,
-3,
-4,
-4,
-4,
-4,
-3,
-3,
-2,
-2,
-3,
-3,
-4,
-4,
-5,
-6,
-6,
-6,
-6,
-6,
-6,
-6,
-6,
-6,
-6,
-6,
-5,
-5,
-4,
-4,
-4,
-4,
-3,
-3,
-2,
-1,
2,
2,
2,
3,
3,
0,
-1,
-2,
-3,
-2,
-1,
-1,
0,
-1,
0,
2,
3,
2,
3,
5,
5,
4,
3,
3,
4,
4,
4,
4,
5,
7,
8,
9,
10,
11,
12,
10,
10,
8,
9,
8,
6,
5,
3,
1,
0,
-3,
-3,
-5,
-4,
-5,
-4,
-5,
-5,
-4,
-5,
-4,
-3,
-3,
-4,
-5,
-5,
-6,
-6,
-6,
-6,
-6,
-6,
-6,
-5,
-5,
-5,
-5,
-4,
-2,
-1,
1,
2,
5,
9,
9,
7,
5,
4,
3,
0,
-2,
-2,
-2,
-3,
-3,
-4,
-4,
-5,
-6,
-6,
-6,
-6,
-6,
-6,
-6,
-5,
-4,
-3,
-2,
-1,
0,
1,
1,
1,
1,
2,
2,
1,
1,
-1,
-2,
-3,
-3,
-4,
-4,
-5,
-5,
-5,
-5,
-4,
-5,
-5,
-4,
-3,
-2,
-1,
1,
3,
7,
9,
11,
10,
10,
10,
7,
7,
7,
6,
5,
5,
5,
4,
4,
4,
4,
4,
6,
7,
7,
5,
2,
1,
1,
0,
-1,
-2,
-3,
-4,
-3,
-4,
-6,
-5,
-5,
-6,
-6,
-6,
-6,
-6,
-6,
-6,
-6,
-6,
-5,
-4,
-3,
-3,
-2,
-2,
-1,
-3,
-4,
-6,
-6,
-6,
-5,
-6,
-6,
-6,
-6,
-6,
-5,
-5,
-6,
-6,
-5,
-6,
-6,
-6,
-6,
-5,
-3,
-2,
1,
7,
9,
13,
15,
18,
19,
17,
17,
14,
11,
9,
4,
1,
-1,
-3,
-4,
-5,
-6,
-6,
-6,
-6,
-6,
-6,
-5,
-3,
-3,
-3,
-2,
-2,
-3,
-3,
-4,
-6,
-6,
-6,
-6,
-6,
-4,
-4,
-3,
-4,
-4,
-5,
-6,
-6,
-6,
-6,
-6,
-6,
-5,
-5,
-4,
-5,
-4,
-4,
-5,
-5,
-5,
-5,
-6,
-6,
-6,
-6,
-5,
-4,
-3,
-1,
2,
4,
6,
7,
8,
7,
6,
4,
2,
2,
1,
2,
2,
4,
4,
4,
3,
3,
1,
-1,
-2,
-2,
-4,
-6,
-5,
-5,
-6,
-6,
-6,
-5,
-3,
-1,
1,
4,
7,
8,
8,
5,
4,
4,
0,
-2,
-3,
-4,
-6,
-6,
-6,
-6,
-6,
-6,
-6,
-5,
-6,
-6,
-6,
-6,
-6,
-6,
-6,
-6,
-5,
-4,
-3,
-1,
1,
1,
1,
2,
3,
4,
5,
4,
4,
0,
-2,
-5,
-5,
-6,
-6,
-6,
-6,
-5,
-6,
-5,
-5,
-5,
-6,
-6,
-6,
-6,
-5,
-6,
-5,
-5,
-5,
-6,
-5,
-5,
-5,
-4,
-5,
-5,
-5,
-4,
-4,
-4,
-3,
-3,
-3,
-1,
3,
4,
6,
10,
13,
14,
16,
17,
19,
20,
17,
16,
16,
16,
13,
11,
7,
3,
1,
-1,
-3,
-4,
-5,
-5,
-7,
-6,
-6,
-6,
-6,
-6,
-5,
-5,
-5,
-4,
-4,
-5,
-5,
-6,
-6,
-6,
-4,
-3,
-2,
-1,
1,
4,
5,
6,
5,
4,
2,
-1,
-3,
-5,
-6,
-5,
-5,
-3,
-2,
-1,
1,
2,
3,
4,
5,
4,
3,
2,
-1,
-3,
-4,
-5,
-6,
-5,
-3,
0,
3,
8,
14,
17,
21,
23,
24,
24,
24,
24,
23,
21,
20,
17,
14,
12,
8,
5,
2,
0,
-1,
-2,
-4,
-5,
-5,
-6,
-6,
-5,
-5,
-5,
-5,
-4,
-3,
-2,
-2,
-1,
-2,
-2,
-1,
-2,
-1,
0,
-1,
0,
0,
1,
1,
-1,
-3,
-3,
-5,
-5,
-6,
-6,
-6,
-6,
-5,
-5,
-5,
-5,
-6,
-6,
-6,
-6,
-6,
-6,
-6,
-6,
-5,
-6,
-6,
-6,
-4,
-3,
-3,
-3,
-2,
-2,
-1,
-1,
-1,
-2,
-3,
-5,
-6,
-6,
-7,
-6,
-6,
-6,
-6,
-6,
-5,
-6,
-5,
-4,
-3,
0,
4,
8,
8,
7,
5,
3,
-1,
-3,
-4,
-6,
-6,
-4,
-3,
1,
8,
15,
23,
29,
34,
35,
37,
37,
34,
26,
21,
19,
12,
10,
5,
1,
-3,
-6,
-7,
-6,
-5,
-5,
-4,
-3,
-4,
-3,
-1,
1,
2,
3,
4,
3,
4,
4,
4,
4,
3,
1,
1,
-1,
-3,
-3,
-5,
-5,
-6,
-5,
-4,
0,
1,
3,
3,
4,
4,
5,
7,
7,
7,
6,
4,
3,
2,
1,
0,
-3,
-3,
-3,
-4,
-5,
-5,
-6,
-6,
-5,
-5,
-4,
-2,
-2,
0,
-1,
-2,
-2,
-3,
-4,
-5,
-6,
-6,
-5,
-5,
-4,
-5,
-5,
-5,
-5,
-4,
-4,
-3,
-3,
-4,
-3,
-2,
-1,
0,
1,
1,
-1,
-1,
0,
-1,
-2,
-3,
-3,
-4,
-4,
-5,
-5,
-5,
-4,
-3,
-3,
-3,
-3,
-2,
-2,
-1,
1,
1,
-1,
-3,
-3,
-6,
-6,
-5,
-6,
-5,
-5,
-3,
-1,
4,
11,
17,
20,
20,
18,
16,
13,
10,
5,
2,
-2,
-3,
-6,
-6,
-5,
-2,
-1,
1,
2,
3,
5,
7,
8,
7,
7,
4,
3,
-1,
-3,
-5,
-5,
-5,
-3,
-1,
2,
4,
5,
6,
6,
6,
6,
6,
4,
4,
3,
-2,
-3,
-4,
-5,
-6,
-6,
-6,
-5,
-4,
-3,
-3,
-2,
-2,
-1,
-1,
1,
1,
1,
0,
-1,
-2,
-2,
-5,
-6,
-6,
-4,
-4,
-4,
-3,
-3,
-3,
-3,
-3,
-4,
-5,
-5,
-5,
-6,
-5,
-5,
-6,
-6,
-6,
-6,
-5,
-6,
-6,
-5,
-5,
-5,
-6,
-6,
-6,
-6,
-5,
-6,
-4,
-5,
-5,
-4,
-5,
-6,
-6,
-6,
-6,
-6,
-6,
-6,
-5,
-5,
-6,
-6,
-6,
-6,
-5,
-5,
-6,
-6,
-6,
-6,
-6,
-6,
-6,
-6,
-5,
-5,
-4,
-3,
-2,
-2,
-2,
-2,
-2,
-2,
-2,
-3,
-3,
-3,
-3,
-4,
-4,
-4,
-5,
-4,
-3,
-3,
-3,
-2,
-3,
-2,
-2,
-2,
-1,
0,
1,
1,
1,
0,
1,
-1,
-3,
-4,
-5,
-6,
-5,
-6,
-6,
-6,
-3,
-1,
4,
7,
9,
10,
13,
13,
11,
9,
8,
4,
4,
2,
0,
-2,
-3,
-5,
-5,
-6,
-6,
-6,
-5,
-5,
-6,
-5,
-6,
-5,
-5,
-6,
-5,
-5,
-6,
-5,
-4,
-3,
0,
1,
1,
0,
-1,
-2,
-3,
-3,
-3,
-3,
-4,
-4,
-3,
-3,
-2,
-2,
-2,
-2,
-3,
-4,
-5,
-5,
-5,
-4,
-4,
-4,
-4,
-6,
-6,
-6,
-6,
-6,
-5,
-3,
-2,
0,
0,
1,
0,
1,
0,
0,
0,
-2,
-2,
-3,
-5,
-5,
-5,
-5,
-6,
-6,
-5,
-6,
-6,
-6,
-6,
-6,
-6,
-6,
-5,
-5,
-6,
-6,
-6,
-6,
-6,
-6,
-5,
-5,
-5,
-5,
-6,
-6,
-6,
-5,
-6,
-6,
-6,
-4,
-2,
-2,
-1,
2,
4,
4,
3,
3,
2,
0,
-2,
-3,
-4,
-3,
-3,
-3,
-2,
-3,
-2,
-1,
-1,
-1,
-1,
-1,
-2,
-3,
-3,
-3,
-4,
-4,
-5,
-5,
-5,
-6,
-6,
-6,
-5,
-6,
-6,
-5,
-5,
-5,
-6,
-5,
-6,
-6,
-6,
-6,
-6,
-6,
-6,
-5,
-5,
-5,
-2,
1,
4,
9,
13,
16,
24,
29,
36,
45,
56,
58,
61,
60,
56,
56,
48,
41,
36,
33,
29,
22,
19,
15,
8,
2,
-1,
-3,
-4,
-5,
-6,
-5,
-6,
-6,
-6,
-5,
-4,
-4,
-3,
-2,
-2,
-2,
-2,
-1,
0,
0,
0,
2,
2,
2,
2,
3,
2,
1,
0,
-1,
1,
2,
3,
6,
8,
10,
12,
13,
14,
15,
14,
12,
11,
8,
4,
3,
-1,
-1,
-3,
-4,
-4,
-5,
-6,
-6,
-6,
-6,
-6,
-6,
-5,
-3,
-2,
0,
2,
4,
4,
5,
7,
4,
2,
0,
-3,
-4,
-6,
-6,
-3,
-1,
2,
3,
2,
1,
0,
-2,
-3,
-3,
-4,
-5,
-6,
-6,
-6,
-6,
-5,
-5,
-5,
-4,
-5,
-6,
-6,
-6,
-5,
-5,
-4,
-5,
-5,
-5,
-3,
-3,
2,
4,
7,
12,
14,
17,
18,
18,
16,
14,
12,
10,
6,
2,
1,
-1,
-2,
-3,
-3,
-2,
-2,
-2,
-1,
0,
1,
1,
1,
1,
0,
-1,
-3,
-3,
-5,
-5,
-5,
-6,
-6,
-5,
-6,
-6,
-6,
-5,
-6,
-5,
-5,
-6,
-5,
-6,
-6,
-6,
-6,
-6,
-6,
-6,
-6,
-7,
-7,
-6,
-5,
-6,
-5,
-5,
-5,
-5,
-4,
-2,
-3,
-3,
-3,
-3,
-3,
-4,
-5,
-6,
-6,
-5,
-6,
-6,
-6,
-6,
-5,
-6,
-6,
-6,
-6,
-5,
-6,
-5,
-3,
-2,
-1,
0,
0,
0,
0,
1,
2,
3,
4,
3,
4,
3,
3,
2,
1,
1,
1,
0,
-2,
-1,
-1,
1,
1,
1,
1,
0,
-1,
-3,
-4,
-5,
-6,
-6,
-7,
-6,
-6,
-5,
-3,
-2,
-1,
2,
4,
4,
5,
4,
4,
3,
3,
1,
0,
-2,
-3,
-3,
-4,
-4,
-5,
-5,
-4,
-3,
-4,
-4,
-4,
-4,
-3,
-3,
-2,
-2,
-2,
-2,
-2,
-2,
-2,
-3,
-2,
-1,
-1,
0,
0,
1,
3,
5,
8,
9,
9,
10,
10,
9,
9,
7,
5,
4,
5,
7,
8,
10,
13,
19,
21,
24,
27,
33,
39,
41,
42,
41,
40,
33,
30,
23,
18,
10,
4,
1,
-2,
-3,
-4,
-6,
-5,
-6,
-6,
-6,
-6,
-6,
-5,
-3,
1,
6,
9,
12,
15,
18,
18,
18,
18,
15,
13,
10,
8,
4,
0,
-3,
-4,
-5,
-5,
-6,
-6,
-5,
-5,
-6,
-5,
-5,
-6,
-5,
-5,
-6,
-5,
-5,
-6,
-6,
-6,
-6,
-6,
-6,
-6,
-6,
-5,
-6,
-6,
-6,
-6,
-4,
-3,
-3,
-2,
-1,
-2,
-2,
-2,
-3,
-3,
-4,
-4,
-5,
-6,
-6,
-5,
-6,
-5,
-6,
-5,
-6,
-5,
-5,
-5,
-3,
-3,
-1,
1,
1,
3,
7,
13,
16,
21,
24,
28,
27,
26,
26,
26,
24,
23,
22,
19,
15,
8,
2,
-2,
-4,
-6,
-6,
-4,
-3,
-1,
5,
8,
11,
10,
9,
10,
9,
5,
2,
0,
0,
-1,
-1,
-1,
-1,
-1,
-2,
-4,
-4,
-6,
-6,
-6,
-5,
-4,
-3,
-3,
-4,
-4,
-5,
-5,
-5,
-6,
-6,
-5,
-6,
-5,
-5,
-6,
-6,
-6,
-6,
-6,
-5,
-4,
-2,
-2,
-2,
-1,
-1,
-1,
-2,
-3,
-3,
-3,
-3,
-3,
-3,
-2,
-2,
-1,
-1,
0,
1,
2,
2,
1,
1,
1,
-1,
-2,
-3,
-4,
-4,
-4,
-6,
-5,
-6,
-5,
-6,
-6,
-6,
-5,
-5,
-5,
-5,
-5,
-5,
-5,
-5,
-6,
-6,
-6,
-6,
-6,
-6,
-4,
-3,
-1,
-1,
0,
-1,
0,
1,
2,
3,
4,
4,
3,
5,
6,
7,
8,
10,
10,
9,
9,
11,
11,
11,
9,
9,
8,
6,
4,
2,
2,
1,
1,
-1,
-1,
-2,
-3,
-4,
-4,
-4,
-3,
-3,
-3,
-2,
-1,
1,
1,
3,
2,
3,
3,
2,
1,
1,
-1,
-3,
-3,
-4,
-4,
-4,
-4,
-4,
-3,
-3,
-2,
-2,
-1,
-1,
0,
1,
2,
2,
3,
4,
4,
4,
4,
4,
4,
5,
5,
4,
3,
2,
0,
-1,
-2,
-3,
-4,
-5,
-5,
-5,
-6,
-6,
-6,
-6,
-5,
-5,
-5,
-5,
-5,
-5,
-3,
-3,
-2,
1,
2,
5,
7,
5,
4,
2,
1,
1,
-2,
-3,
-3,
-4,
-5,
-5,
-5,
-6,
-6,
-7,
-6,
-6,
-6,
-6,
-6,
-6,
-5,
-6,
-6,
-6,
-6,
-5,
-6,
-6,
-6,
-6,
-6,
-6,
-6,
-5,
-5,
-5,
-5,
-4,
-3,
-2,
1,
3,
10,
14,
18,
19,
20,
20,
19,
20,
19,
22,
19,
17,
13,
11,
8,
7,
4,
3,
2,
-1,
-3,
-3,
-5,
-5,
-6,
-6,
-5,
-6,
-6,
-5,
-5,
-5,
-5,
-5,
-5,
-5,
-6,
-6,
-6,
-6,
-5,
-5,
-6,
-6,
-6,
-6,
-5,
-5,
-4,
-2,
-1,
1,
3,
6,
9,
12,
13,
14,
14,
15,
14,
16,
16,
14,
13,
15,
15,
15,
14,
13,
10,
9,
8,
5,
4,
1,
0,
-2,
-3,
-5,
-6,
-6,
-6,
-6,
-6,
-5,
-4,
-3,
-3,
-2,
-1,
1,
0,
0,
0,
-1,
-2,
-3,
-3,
-3,
-4,
-5,
-5,
-6,
-5,
-6,
-6,
-6,
-5,
-6,
-6,
-5,
-6,
-6,
-6,
-6,
-6,
-6,
-6,
-6,
-6,
-5,
-5,
-5,
-5,
-6,
-6,
-6,
-6,
-5,
-6,
-6,
-4,
-4,
-4,
-4,
-4,
-5,
-6,
-6,
-6,
-6,
-6,
-5,
-5,
-5,
-4,
-4,
-3,
-3,
-3,
-4,
-3,
-4,
-6,
-6,
-5,
-6,
-6,
-6,
-6,
-5,
-6,
-5,
-5,
-4,
-5,
-5,
-3,
-3,
-2,
-1,
1,
4,
5,
5,
5,
5,
5,
4,
0,
-2,
-3,
-4,
-5,
-5,
-6,
-6,
-6,
-6,
-6,
-5,
-6,
-5,
-5,
-4,
-4,
-3,
-3,
-2,
-2,
-3,
-3,
-4,
-5,
-6,
-6,
-7,
-6,
-6,
-6,
-6,
-6,
-6,
-5,
-4,
-4,
-4,
-5,
-5,
-5,
-6,
-6,
-6,
-6,
-6,
-6,
-6,
-5,
-5,
-4,
-5,
-5,
-4,
-4,
-3,
-3,
-2,
0,
2,
4,
6,
7,
8,
8,
9,
8,
7,
6,
4,
1,
0,
-3,
-3,
-4,
-6,
-6,
-6,
-6,
-5,
-4,
-5,
-4,
-4,
-4,
-3,
-3,
-4,
-5,
-6,
-5,
-6,
-6,
-5,
-5,
-5,
-4,
-3,
-2,
-2,
-2,
-2,
-2,
-3,
-3,
-3,
-3,
-2,
-2,
1,
2,
3,
4,
8,
9,
13,
12,
11,
7,
4,
2,
0,
-2,
-2,
-4,
-5,
-5,
-6,
-6,
-6,
-6,
-6,
-7,
-6,
-6,
-6,
-6,
-5,
-6,
-5,
-6,
-6,
-5,
-5,
-6,
-5,
-5,
-5,
-4,
-4,
-3,
0,
2,
4,
7,
8,
8,
9,
10,
10,
10,
10,
10,
10,
12,
16,
18,
21,
23,
26,
28,
33,
41,
48,
50,
49,
48,
41,
33,
23,
14,
