o-scope/A0007CH1.CSV

Memory Length,4000,
Trigger Level,1.12000e+00,
Source,CH1,
Probe,1.0X,
Vertical Units,V,
Vertical Scale,1.00000e+00,
Vertical Position,3.20000e-01,
Horizontal Units,S,
Horizontal Scale,1.00000e-03,
Horizontal Position,6.7360000e-02,
Horizontal Mode,Main,
Sampling Period,4.00000e-06,
Firmware,V1.12,
Time, ,
Mode,Fast,
Waveform Data,
1,
1,
1,
1,
1,
1,
1,
1,
1,
1,
1,
1,
1,
1,
0,
1,
1,
1,
1,
1,
1,
1,
0,
1,
1,
1,
0,
1,
1,
2,
0,
1,
1,
1,
1,
1,
1,
1,
1,
1,
1,
1,
1,
1,
1,
1,
1,
1,
1,
1,
1,
1,
1,
2,
2,
0,
1,
1,
1,
1,
1,
1,
1,
1,
1,
1,
1,
2,
1,
2,
1,
1,
2,
0,
1,
1,
1,
1,
0,
1,
0,
1,
1,
1,
1,
1,
1,
1,
1,
1,
1,
1,
1,
1,
1,
1,
1,
1,
1,
1,
1,
1,
1,
1,
1,
1,
2,
1,
1,
1,
1,
1,
1,
1,
1,
1,
1,
1,
1,
1,
1,
1,
1,
1,
1,
1,
1,
1,
1,
1,
1,
1,
1,
1,
1,
1,
1,
0,
1,
1,
1,
1,
1,
1,
1,
1,
1,
1,
1,
1,
1,
1,
2,
1,
1,
0,
1,
1,
1,
0,
1,
1,
1,
1,
1,
1,
1,
0,
1,
1,
1,
1,
1,
1,
1,
1,
1,
2,
1,
0,
1,
1,
2,
1,
1,
2,
1,
1,
1,
1,
1,
1,
1,
1,
1,
0,
1,
0,
1,
1,
1,
1,
0,
1,
1,
1,
1,
1,
0,
1,
1,
1,
0,
1,
1,
1,
1,
1,
1,
1,
1,
1,
1,
1,
1,
1,
1,
1,
1,
1,
1,
1,
1,
0,
1,
1,
1,
1,
1,
1,
1,
1,
1,
1,
1,
1,
1,
1,
1,
1,
0,
1,
1,
1,
1,
1,
1,
1,
1,
1,
1,
1,
1,
1,
1,
1,
0,
1,
1,
1,
1,
1,
1,
1,
1,
0,
1,
0,
1,
1,
1,
1,
1,
0,
1,
1,
2,
0,
1,
1,
1,
1,
1,
1,
1,
1,
1,
1,
1,
0,
1,
1,
1,
1,
1,
1,
1,
1,
2,
1,
1,
1,
1,
1,
1,
2,
1,
1,
2,
1,
1,
1,
1,
1,
1,
1,
1,
1,
1,
1,
1,
1,
1,
1,
2,
0,
1,
1,
1,
1,
1,
1,
1,
1,
1,
1,
1,
1,
2,
1,
1,
0,
2,
1,
1,
1,
1,
1,
1,
1,
1,
1,
1,
1,
0,
1,
1,
1,
1,
2,
1,
1,
1,
1,
2,
1,
1,
1,
1,
1,
1,
1,
1,
1,
1,
1,
1,
1,
1,
1,
2,
1,
1,
1,
1,
1,
1,
1,
1,
1,
0,
1,
1,
2,
1,
1,
1,
0,
1,
1,
1,
1,
0,
1,
1,
0,
1,
1,
1,
1,
1,
1,
1,
1,
1,
0,
0,
0,
1,
1,
1,
1,
1,
1,
1,
1,
1,
1,
2,
1,
1,
0,
1,
1,
1,
1,
1,
2,
1,
1,
1,
1,
1,
2,
1,
2,
1,
1,
1,
1,
2,
1,
1,
1,
1,
0,
1,
1,
1,
1,
1,
2,
1,
1,
1,
1,
1,
1,
1,
1,
1,
1,
1,
1,
1,
1,
1,
1,
0,
0,
1,
1,
1,
1,
1,
2,
1,
1,
1,
1,
1,
2,
1,
1,
1,
1,
1,
1,
1,
1,
1,
2,
1,
1,
1,
1,
1,
1,
1,
1,
1,
0,
1,
1,
0,
1,
1,
1,
1,
0,
1,
1,
1,
1,
1,
1,
0,
1,
1,
1,
1,
1,
0,
1,
1,
1,
1,
1,
1,
1,
1,
2,
2,
1,
1,
0,
1,
0,
0,
1,
0,
1,
1,
0,
2,
1,
1,
1,
1,
0,
1,
1,
2,
1,
1,
1,
0,
1,
1,
0,
1,
1,
1,
1,
1,
1,
1,
2,
1,
1,
1,
2,
0,
1,
1,
1,
1,
1,
1,
1,
1,
1,
1,
1,
1,
2,
1,
1,
1,
1,
1,
1,
0,
0,
1,
1,
1,
1,
2,
1,
1,
1,
2,
1,
1,
1,
1,
0,
1,
1,
1,
0,
1,
1,
1,
1,
1,
1,
1,
1,
1,
1,
1,
1,
2,
1,
1,
1,
1,
1,
2,
1,
1,
1,
1,
1,
1,
1,
2,
0,
1,
1,
1,
1,
1,
0,
1,
1,
1,
1,
1,
1,
1,
1,
2,
1,
1,
1,
1,
1,
2,
1,
2,
2,
2,
1,
1,
2,
1,
1,
1,
1,
1,
0,
2,
1,
1,
1,
2,
1,
1,
1,
2,
1,
1,
1,
2,
1,
1,
1,
1,
1,
1,
1,
1,
1,
1,
1,
1,
1,
1,
1,
1,
1,
0,
1,
1,
1,
1,
1,
1,
1,
1,
1,
1,
2,
1,
1,
1,
1,
1,
1,
1,
1,
2,
1,
1,
1,
0,
2,
1,
1,
1,
1,
1,
2,
2,
1,
1,
1,
0,
1,
1,
1,
1,
1,
1,
1,
1,
1,
1,
1,
1,
1,
1,
2,
2,
1,
1,
1,
1,
0,
1,
1,
1,
2,
1,
1,
1,
1,
1,
1,
1,
1,
1,
1,
2,
1,
1,
1,
1,
1,
1,
1,
1,
1,
2,
0,
0,
1,
1,
1,
1,
1,
1,
1,
1,
0,
1,
1,
2,
1,
0,
1,
0,
1,
1,
1,
1,
2,
0,
1,
2,
1,
0,
1,
0,
1,
1,
0,
0,
1,
1,
1,
1,
0,
1,
1,
1,
1,
1,
1,
2,
2,
1,
2,
1,
1,
1,
1,
2,
1,
1,
2,
2,
0,
1,
1,
1,
1,
1,
2,
1,
1,
1,
1,
1,
1,
1,
1,
0,
1,
1,
1,
1,
1,
1,
1,
1,
1,
1,
1,
1,
1,
2,
2,
1,
1,
1,
2,
1,
1,
1,
1,
1,
1,
1,
1,
1,
0,
1,
2,
2,
1,
1,
1,
1,
1,
1,
1,
1,
1,
1,
1,
1,
2,
1,
2,
2,
1,
1,
1,
2,
1,
1,
1,
1,
0,
1,
1,
2,
1,
1,
2,
1,
0,
1,
1,
2,
1,
1,
1,
1,
1,
1,
1,
0,
1,
1,
1,
1,
1,
1,
1,
2,
2,
0,
1,
1,
1,
1,
1,
1,
1,
2,
1,
1,
1,
1,
1,
0,
1,
1,
1,
1,
1,
1,
1,
1,
1,
1,
2,
1,
1,
1,
1,
1,
1,
1,
2,
1,
1,
1,
1,
1,
1,
1,
1,
1,
1,
1,
1,
1,
1,
1,
1,
1,
1,
1,
1,
1,
1,
1,
1,
1,
1,
1,
1,
1,
1,
1,
1,
1,
1,
1,
1,
1,
1,
2,
1,
1,
1,
1,
1,
1,
1,
1,
1,
1,
1,
0,
1,
1,
1,
1,
0,
1,
2,
1,
1,
2,
1,
1,
1,
0,
1,
1,
1,
1,
1,
1,
1,
1,
1,
1,
1,
2,
1,
1,
2,
2,
1,
1,
1,
1,
1,
1,
1,
1,
1,
1,
1,
0,
0,
1,
1,
1,
1,
1,
1,
1,
1,
2,
1,
1,
1,
1,
1,
1,
1,
1,
1,
1,
1,
1,
1,
2,
1,
1,
1,
1,
1,
1,
1,
1,
1,
1,
1,
1,
1,
1,
1,
1,
1,
1,
1,
1,
1,
1,
1,
1,
1,
1,
1,
1,
1,
1,
1,
1,
1,
1,
1,
0,
0,
1,
1,
1,
1,
1,
1,
1,
1,
1,
1,
1,
1,
1,
1,
1,
1,
1,
1,
1,
1,
1,
1,
0,
1,
1,
1,
1,
1,
1,
1,
1,
1,
1,
1,
1,
1,
2,
1,
1,
2,
2,
1,
1,
1,
1,
1,
1,
1,
1,
1,
1,
2,
1,
1,
1,
1,
2,
1,
2,
1,
1,
1,
1,
1,
1,
1,
1,
1,
1,
1,
1,
1,
1,
1,
1,
1,
1,
1,
1,
2,
1,
0,
1,
1,
1,
1,
1,
1,
1,
1,
1,
1,
1,
0,
2,
1,
1,
1,
1,
1,
1,
2,
1,
1,
1,
2,
1,
0,
1,
1,
1,
2,
1,
1,
1,
2,
1,
1,
1,
1,
1,
1,
1,
1,
1,
1,
1,
1,
1,
0,
1,
1,
1,
1,
1,
1,
0,
1,
1,
1,
1,
1,
1,
2,
1,
1,
2,
1,
1,
1,
1,
1,
1,
2,
1,
1,
1,
1,
1,
1,
1,
1,
1,
1,
2,
1,
1,
1,
2,
1,
2,
0,
1,
1,
1,
1,
0,
1,
1,
1,
1,
1,
1,
1,
1,
1,
1,
1,
1,
1,
1,
1,
0,
1,
1,
2,
0,
1,
1,
1,
1,
1,
1,
1,
1,
1,
1,
2,
1,
1,
1,
0,
1,
1,
2,
1,
1,
1,
1,
1,
1,
0,
1,
1,
1,
1,
2,
2,
1,
1,
1,
1,
1,
1,
1,
1,
1,
1,
1,
1,
1,
1,
1,
1,
2,
1,
1,
2,
1,
1,
1,
1,
1,
1,
2,
1,
1,
1,
2,
1,
1,
1,
1,
1,
1,
2,
1,
1,
1,
1,
0,
1,
1,
1,
1,
1,
1,
1,
1,
1,
1,
0,
1,
1,
1,
0,
1,
1,
1,
1,
1,
0,
1,
1,
1,
1,
2,
1,
1,
1,
1,
1,
1,
1,
1,
1,
1,
1,
1,
1,
2,
1,
1,
1,
1,
1,
1,
1,
2,
1,
1,
1,
2,
1,
1,
2,
0,
1,
2,
1,
1,
1,
1,
1,
1,
1,
1,
1,
0,
1,
1,
1,
1,
1,
1,
1,
1,
1,
1,
1,
1,
1,
1,
1,
1,
1,
1,
1,
1,
1,
1,
1,
1,
1,
1,
1,
1,
1,
1,
1,
1,
1,
1,
1,
1,
1,
1,
1,
0,
0,
1,
1,
1,
1,
2,
1,
1,
1,
1,
1,
1,
1,
1,
1,
1,
1,
0,
1,
1,
1,
1,
1,
1,
1,
1,
1,
1,
1,
1,
1,
1,
1,
1,
2,
1,
1,
0,
1,
1,
1,
1,
1,
0,
1,
1,
1,
0,
1,
1,
2,
1,
1,
1,
1,
1,
1,
1,
1,
1,
1,
1,
1,
2,
1,
1,
1,
1,
1,
1,
1,
0,
1,
1,
1,
1,
1,
1,
1,
1,
1,
1,
1,
1,
1,
1,
1,
2,
1,
1,
2,
1,
1,
1,
1,
1,
1,
0,
1,
1,
1,
1,
1,
2,
1,
1,
1,
2,
1,
1,
1,
1,
1,
1,
1,
1,
1,
1,
1,
1,
2,
0,
1,
1,
1,
1,
1,
1,
1,
1,
1,
1,
1,
1,
0,
1,
1,
0,
0,
1,
1,
1,
1,
0,
1,
1,
1,
1,
1,
1,
1,
1,
2,
0,
1,
1,
1,
1,
1,
1,
1,
1,
1,
1,
1,
0,
1,
1,
2,
1,
1,
1,
1,
1,
1,
1,
1,
1,
1,
1,
1,
1,
1,
1,
0,
0,
1,
1,
1,
1,
1,
1,
1,
1,
1,
1,
1,
1,
1,
1,
1,
0,
1,
1,
1,
1,
1,
1,
1,
0,
1,
0,
1,
1,
0,
1,
0,
1,
1,
1,
1,
1,
1,
1,
1,
0,
1,
1,
1,
1,
1,
1,
1,
1,
2,
1,
1,
1,
1,
2,
1,
1,
2,
1,
1,
1,
0,
1,
1,
0,
1,
1,
1,
1,
1,
1,
1,
1,
2,
1,
1,
2,
1,
1,
1,
1,
1,
1,
1,
1,
1,
1,
0,
1,
1,
1,
1,
1,
1,
2,
1,
1,
1,
1,
1,
1,
1,
1,
2,
1,
1,
1,
1,
0,
1,
1,
1,
1,
1,
1,
1,
1,
1,
1,
1,
1,
1,
1,
0,
1,
1,
1,
2,
1,
1,
1,
1,
1,
1,
1,
2,
1,
1,
2,
2,
1,
1,
1,
1,
0,
1,
1,
1,
1,
2,
1,
1,
1,
1,
1,
1,
1,
1,
1,
1,
1,
1,
1,
1,
1,
1,
1,
1,
1,
1,
1,
0,
1,
1,
1,
1,
1,
1,
0,
1,
2,
1,
1,
1,
1,
1,
1,
1,
1,
0,
1,
2,
1,
2,
1,
0,
1,
1,
1,
0,
1,
1,
1,
1,
0,
1,
1,
1,
1,
1,
0,
1,
1,
1,
1,
1,
1,
1,
0,
1,
1,
1,
1,
1,
1,
1,
2,
1,
1,
1,
1,
2,
1,
1,
1,
1,
0,
1,
1,
1,
1,
1,
1,
1,
1,
1,
1,
1,
1,
0,
0,
1,
0,
1,
1,
1,
1,
1,
0,
1,
1,
2,
1,
2,
1,
1,
0,
1,
1,
2,
1,
1,
1,
0,
1,
1,
1,
0,
1,
1,
1,
1,
1,
1,
1,
1,
1,
1,
1,
1,
1,
1,
1,
1,
1,
1,
1,
1,
1,
1,
1,
1,
1,
1,
1,
2,
1,
0,
1,
1,
1,
1,
0,
1,
1,
1,
1,
1,
0,
1,
1,
1,
1,
1,
1,
1,
2,
1,
0,
1,
0,
1,
1,
1,
1,
1,
1,
1,
1,
2,
1,
2,
1,
1,
1,
1,
1,
1,
1,
1,
1,
1,
1,
1,
1,
2,
0,
1,
1,
1,
1,
1,
1,
1,
0,
1,
1,
1,
1,
1,
1,
1,
2,
1,
1,
2,
2,
1,
1,
1,
2,
1,
2,
2,
1,
0,
0,
1,
1,
1,
1,
1,
1,
1,
1,
1,
1,
1,
1,
1,
1,
1,
1,
2,
1,
1,
2,
1,
1,
1,
0,
1,
1,
1,
1,
1,
1,
1,
1,
1,
1,
1,
1,
1,
1,
1,
2,
1,
1,
2,
1,
1,
1,
2,
1,
1,
82,
84,
84,
83,
83,
82,
84,
83,
82,
82,
83,
82,
83,
83,
83,
82,
82,
82,
83,
83,
82,
83,
82,
83,
84,
82,
82,
84,
83,
83,
83,
83,
83,
82,
83,
83,
82,
82,
83,
82,
83,
83,
82,
82,
83,
83,
82,
83,
83,
83,
82,
82,
83,
83,
83,
82,
83,
82,
83,
83,
83,
82,
82,
82,
83,
82,
82,
83,
82,
83,
82,
82,
82,
82,
84,
83,
82,
83,
82,
83,
84,
82,
82,
82,
82,
82,
83,
83,
82,
83,
82,
82,
82,
82,
83,
83,
83,
83,
82,
83,
83,
82,
82,
82,
83,
82,
83,
82,
82,
82,
83,
82,
82,
83,
82,
83,
82,
82,
82,
82,
82,
82,
82,
83,
82,
82,
83,
83,
82,
82,
82,
82,
83,
82,
82,
82,
82,
82,
82,
82,
82,
82,
82,
83,
82,
83,
82,
82,
82,
82,
82,
82,
81,
82,
82,
83,
83,
82,
82,
82,
82,
82,
82,
82,
82,
82,
82,
82,
82,
82,
82,
82,
82,
83,
82,
82,
82,
82,
82,
82,
82,
82,
82,
82,
82,
82,
82,
82,
82,
82,
82,
82,
82,
81,
83,
82,
82,
82,
82,
82,
83,
82,
82,
83,
82,
82,
82,
81,
82,
83,
82,
82,
82,
82,
82,
82,
81,
82,
82,
82,
82,
82,
82,
82,
82,
81,
82,
82,
83,
82,
82,
82,
82,
82,
82,
82,
83,
83,
82,
82,
82,
82,
82,
82,
83,
82,
82,
82,
83,
82,
83,
82,
82,
82,
82,
82,
82,
82,
82,
82,
82,
82,
82,
82,
82,
82,
81,
82,
82,
82,
82,
82,
82,
82,
83,
82,
83,
82,
81,
82,
81,
82,
82,
82,
82,
82,
82,
82,
81,
82,
82,
82,
81,
82,
82,
82,
82,
82,
82,
82,
83,
83,
83,
82,
82,
82,
82,
82,
83,
82,
82,
82,
82,
82,
82,
82,
82,
82,
82,
81,
81,
82,
82,
82,
82,
82,
82,
82,
82,
82,
82,
82,
82,
82,
82,
82,
82,
82,
82,
82,
82,
82,
82,
82,
82,
82,
82,
82,
81,
82,
82,
82,
81,
82,
82,
82,
82,
82,
82,
83,
82,
82,
82,
81,
82,
82,
82,
82,
81,
82,
82,
82,
82,
82,
82,
82,
82,
82,
81,
82,
82,
83,
82,
82,
82,
82,
82,
82,
82,
82,
82,
82,
82,
82,
82,
82,
82,
82,
82,
82,
83,
83,
82,
82,
82,
81,
81,
82,
81,
82,
82,
82,
82,
82,
82,
82,
82,
82,
82,
81,
82,
82,
82,
82,
82,
81,
82,
82,
82,
82,
82,
82,
82,
82,
82,
82,
82,
82,
82,
82,
82,
82,
82,
82,
82,
81,
82,
82,
82,
82,
82,
82,
82,
82,
81,
82,
82,
82,
82,
82,
82,
82,
82,
82,
82,
82,
82,
82,
82,
82,
82,
82,
82,
82,
82,
82,
82,
82,
82,
82,
82,
82,
82,
82,
82,
82,
82,
82,
82,
82,
82,
81,
82,
82,
82,
82,
82,
82,
81,
82,
82,
82,
82,
82,
82,
82,
82,
81,
82,
82,
81,
82,
82,
82,
82,
82,
82,
82,
82,
82,
82,
82,
82,
82,
82,
82,
82,
82,
82,
82,
82,
82,
82,
82,
82,
82,
82,
82,
82,
82,
82,
82,
82,
82,
82,
82,
82,
82,
83,
82,
82,
82,
82,
82,
82,
83,
82,
82,
82,
82,
82,
82,
82,
83,
82,
82,
82,
82,
82,
82,
82,
82,
82,
82,
82,
82,
82,
82,
82,
82,
82,
82,
82,
81,
82,
82,
82,
82,
82,
81,
81,
82,
82,
82,
82,
82,
82,
82,
82,
82,
82,
82,
82,
82,
82,
82,
83,
82,
82,
82,
82,
82,
82,
82,
81,
83,
82,
82,
82,
82,
81,
82,
82,
82,
82,
82,
82,
82,
82,
82,
82,
82,
82,
82,
82,
82,
82,
82,
82,
82,
82,
82,
82,
82,
82,
81,
82,
82,
82,
82,
82,
82,
82,
81,
82,
82,
82,
82,
82,
82,
83,
81,
82,
82,
82,
82,
82,
82,
82,
82,
82,
82,
82,
82,
82,
82,
82,
82,
83,
82,
82,
82,
83,
82,
82,
82,
82,
82,
83,
82,
82,
82,
82,
82,
82,
82,
82,
82,
82,
82,
82,
82,
82,
83,
82,
82,
82,
82,
82,
82,
82,
82,
82,
82,
82,
82,
82,
82,
82,
82,
82,
82,
82,
82,
83,
82,
83,
82,
83,
82,
82,
82,
82,
82,
82,
81,
82,
81,
82,
81,
82,
82,
82,
82,
82,
82,
82,
82,
83,
82,
82,
82,
82,
81,
82,
81,
83,
83,
82,
82,
82,
82,
82,
82,
82,
82,
82,
82,
82,
82,
82,
82,
82,
82,
82,
82,
82,
82,
82,
82,
82,
82,
82,
82,
82,
82,
83,
82,
82,
82,
82,
82,
83,
82,
82,
82,
82,
82,
82,
82,
82,
82,
82,
82,
82,
82,
83,
82,
82,
82,
82,
82,
82,
82,
82,
82,
82,
82,
82,
82,
83,
82,
83,
82,
82,
82,
82,
83,
82,
82,
83,
82,
82,
83,
82,
82,
83,
82,
82,
82,
82,
82,
82,
83,
83,
82,
83,
82,
82,
82,
82,
83,
82,
82,
82,
82,
82,
82,
82,
82,
82,
82,
82,
82,
83,
82,
82,
83,
83,
83,
82,
82,
82,
82,
82,
82,
82,
83,
83,
83,
82,
82,
82,
82,
83,
82,
82,
82,
82,
83,
83,
82,
82,
82,
83,
83,
82,
83,
83,
82,
82,
82,
82,
82,
82,
82,
83,
82,
82,
82,
82,
82,
83,
83,
83,
82,
82,
82,
83,
82,
83,
83,
83,
82,
82,
82,
82,
82,
83,
82,
82,
83,
82,
83,
83,
83,
83,
82,
83,
83,
83,
82,
83,
83,
83,
83,
83,
82,
83,
83,
82,
82,
82,
82,
82,
83,
82,
82,
82,
82,
82,
82,
82,
83,
82,
82,
83,
82,
82,
82,
82,
83,
83,
83,
82,
83,
83,
82,
83,
82,
82,
83,
82,
83,
82,
82,
82,
83,
82,
83,
83,
83,
83,
84,
82,
82,
84,
82,
82,
83,
82,
82,
83,
83,
82,
83,
83,
83,
82,
83,
82,
82,
82,
82,
83,
83,
83,
83,
83,
82,
82,
83,
83,
83,
83,
84,
82,
83,
83,
83,
83,
83,
83,
83,
82,
82,
83,
83,
83,
82,
84,
82,
82,
83,
83,
83,
82,
83,
83,
82,
83,
83,
83,
82,
83,
83,
83,
83,
82,
82,
82,
83,
82,
83,
83,
82,
83,
82,
83,
82,
82,
82,
82,
83,
83,
82,
83,
83,
83,
83,
83,
82,
83,
83,
84,
83,
82,
83,
83,
83,
83,
83,
83,
82,
82,
82,
82,
82,
84,
83,
82,
82,
83,
82,
82,
83,
82,
82,
84,
82,
83,
82,
83,
82,
83,
83,
83,
83,
82,
83,
83,
83,
83,
82,
83,
82,
83,
83,
83,
83,
83,
82,
83,
82,
82,
82,
83,
83,
82,
83,
83,
83,
83,
82,
83,
83,
83,
83,
84,
83,
82,
82,
82,
82,
82,
83,
82,
83,
83,
84,
83,
83,
83,
83,
83,
82,
83,
83,
83,
84,
83,
83,
82,
83,
83,
82,
83,
83,
83,
83,
83,
83,
83,
82,
83,
83,
82,
82,
83,
83,
83,
82,
82,
83,
84,
82,
83,
82,
83,
83,
82,
84,
83,
83,
83,
83,
83,
82,
83,
82,
83,
83,
82,
83,
83,
83,
83,
82,
83,
82,
82,
83,
83,
83,
84,
83,
84,
83,
82,
84,
84,
83,
83,
83,
82,
82,
82,
84,
83,
83,
83,
83,
83,
83,
84,
82,
84,
84,
83,
83,
83,
84,
83,
83,
84,
83,
83,
83,
83,
83,
83,
83,
83,
83,
83,
83,
83,
83,
83,
83,
84,
83,
83,
84,
82,
83,
83,
83,
83,
84,
83,
83,
84,
84,
83,
84,
84,
83,
83,
83,
83,
82,
83,
83,
83,
84,
83,
84,
84,
83,
83,
84,
84,
83,
83,
83,
83,
83,
83,
83,
84,
83,
83,
83,
83,
83,
83,
83,
84,
83,
83,
82,
83,
84,
82,
83,
83,
83,
83,
84,
83,
83,
83,
83,
83,
82,
84,
84,
83,
83,
84,
83,
84,
84,
83,
83,
83,
83,
83,
83,
83,
83,
83,
84,
83,
84,
83,
84,
83,
84,
83,
83,
84,
84,
82,
84,
83,
83,
83,
83,
83,
83,
84,
84,
84,
83,
84,
83,
83,
84,
83,
83,
83,
83,
83,
84,
83,
83,
83,
83,
83,
83,
83,
83,
84,
83,
84,
84,
83,
84,
83,
83,
83,
84,
83,
84,
83,
83,
83,
84,
84,
83,
84,
83,
83,
84,
83,
83,
84,
83,
83,
83,
83,
84,
83,
84,
83,
84,
83,
82,
83,
83,
83,
83,
84,
83,
83,
83,
83,
83,
84,
84,
83,
84,
84,
84,
84,
84,
84,
83,
83,
82,
84,
83,
83,
83,
83,
83,
83,
84,
83,
84,
83,
84,
83,
83,
83,
84,
83,
83,
83,
83,
83,
84,
83,
84,
84,
83,
84,
83,
84,
84,
83,
83,
83,
83,
84,
83,
84,
83,
84,
84,
82,
84,
83,
84,
83,
84,
84,
84,
83,
84,
84,
84,
83,
83,
84,
83,
84,
83,
84,
84,
84,
84,
84,
83,
83,
84,
83,
83,
83,
83,
84,
83,
84,
84,
84,
84,
83,
83,
84,
84,
83,
84,
83,
83,
84,
84,
84,
83,
84,
84,
83,
84,
84,
84,
84,
83,
84,
84,
84,
84,
84,
84,
84,
84,
83,
83,
84,
83,
84,
84,
83,
84,
84,
84,
84,
84,
84,
84,
83,
83,
84,
84,
83,
83,
84,
84,
84,
84,
83,
84,
84,
84,
84,
84,
83,
83,
83,
84,
84,
84,
84,
84,
84,
83,
84,
84,
84,
84,
84,
83,
84,
84,
83,
84,
84,
84,
84,
84,
84,
84,
84,
84,
83,
84,
84,
84,
84,
83,
83,
83,
84,
84,
83,
83,
83,
84,
84,
84,
84,
83,
85,
84,
83,
83,
84,
84,
83,
84,
84,
84,
83,
84,
83,
83,
84,
84,
84,
83,
84,
84,
84,
84,
84,
84,
84,
83,
84,
84,
84,
84,
83,
84,
84,
84,
83,
84,
84,
84,
84,
84,
83,
84,
84,
83,
84,
83,
84,
84,
84,
84,
85,
84,
84,
84,
84,
84,
84,
83,
85,
84,
84,
84,
84,
84,
84,
84,
83,
83,
84,
84,
84,
84,
83,
84,
84,
85,
84,
84,
84,
84,
83,
84,
84,
83,
84,
84,
85,
84,
84,
84,
84,
84,
83,
83,
84,
84,
83,
84,
83,
84,
84,
84,
84,
84,
84,
84,
84,
84,
83,
84,
84,
83,
84,
84,
84,
84,
84,
84,
84,
84,
84,
84,
84,
84,
83,
84,
84,
84,
84,
84,
84,
83,
83,
84,
84,
84,
84,
84,
84,
84,
84,
84,
84,
84,
84,
84,
84,
83,
83,
84,
84,
83,
84,
84,
84,
83,
84,
84,
83,
84,
83,
84,
84,
84,
84,
84,
83,
84,
84,
83,
84,
83,
83,
84,
83,
84,
84,
84,
83,
83,
83,
83,
84,
84,
84,
83,
84,
84,
84,
84,
84,
84,
84,
84,
84,
84,
84,
84,
84,
84,
84,
84,
84,
84,
84,
84,
84,
84,
84,
84,
84,
84,
84,
84,
