o-scope/A0007CH2.CSV

Memory Length,4000,
Trigger Level,1.12000e+00,
Source,CH2,
Probe,1.0X,
Vertical Units,V,
Vertical Scale,5.00000e-02,
Vertical Position,2.40000e-01,
Horizontal Units,S,
Horizontal Scale,1.00000e-03,
Horizontal Position,6.7360000e-02,
Horizontal Mode,Main,
Sampling Period,4.00000e-06,
Firmware,V1.12,
Time, ,
Mode,Fast,
Waveform Data,
-41,
-41,
-35,
-32,
-45,
-38,
-39,
-40,
-46,
-40,
-37,
-36,
-33,
-35,
-50,
-48,
-40,
-49,
-36,
-32,
-46,
-38,
-47,
-47,
-34,
-32,
-33,
-38,
-34,
-33,
-29,
-42,
-30,
-38,
-34,
-29,
-42,
-37,
-43,
-27,
-43,
-35,
-47,
-38,
-38,
-44,
-50,
-39,
-36,
-48,
-43,
-34,
-44,
-36,
-32,
-35,
-35,
-34,
-45,
-45,
-46,
-46,
-38,
-29,
-35,
-28,
-27,
-34,
-34,
-34,
-22,
-34,
-31,
-23,
-29,
-35,
-31,
-37,
-49,
-50,
-51,
-38,
-47,
-33,
-38,
-35,
-30,
-42,
-38,
-33,
-38,
-46,
-44,
-51,
-46,
-36,
-42,
-34,
-43,
-26,
-36,
-34,
-38,
-29,
-40,
-40,
-31,
-29,
-38,
-41,
-29,
-35,
-30,
-43,
-42,
-38,
-28,
-34,
-38,
-43,
-30,
-43,
-34,
-40,
-30,
-31,
-32,
-45,
-40,
-30,
-30,
-33,
-35,
-36,
-34,
-38,
-23,
-37,
-35,
-36,
-26,
-38,
-34,
-33,
-43,
-42,
-30,
-35,
-34,
-33,
-39,
-32,
-31,
-40,
-46,
-48,
-33,
-44,
-48,
-38,
-33,
-35,
-41,
-38,
-37,
-31,
-39,
-41,
-28,
-35,
-25,
-22,
-36,
-24,
-27,
-26,
-31,
-30,
-42,
-40,
-31,
-31,
-34,
-35,
-45,
-40,
-30,
-42,
-40,
-25,
-34,
-21,
-22,
-25,
-31,
-27,
-29,
-38,
-36,
-43,
-35,
-31,
-30,
-46,
-30,
-35,
-48,
-35,
-35,
-48,
-50,
-34,
-39,
-43,
-39,
-30,
-26,
-23,
-32,
-28,
-36,
-20,
-30,
-25,
-30,
-40,
-29,
-46,
-43,
-32,
-43,
-32,
-32,
-41,
-43,
-31,
-31,
-40,
-33,
-33,
-38,
-43,
-35,
-27,
-30,
-39,
-35,
-27,
-29,
-26,
-27,
-31,
-38,
-28,
-42,
-28,
-38,
-31,
-28,
-43,
-30,
-31,
-38,
-39,
-35,
-31,
-36,
-34,
-36,
-48,
-49,
-36,
-49,
-39,
-34,
-41,
-41,
-43,
-44,
-35,
-35,
-33,
-42,
-38,
-37,
-33,
-43,
-28,
-39,
-30,
-25,
-39,
-33,
-41,
-27,
-42,
-29,
-42,
-35,
-29,
-39,
-42,
-33,
-26,
-40,
-41,
-34,
-42,
-36,
-33,
-39,
-36,
-37,
-42,
-43,
-43,
-42,
-38,
-27,
-30,
-27,
-28,
-38,
-40,
-40,
-25,
-41,
-38,
-25,
-23,
-33,
-25,
-30,
-40,
-43,
-45,
-30,
-44,
-30,
-38,
-34,
-26,
-34,
-26,
-24,
-28,
-36,
-34,
-44,
-39,
-36,
-47,
-45,
-51,
-36,
-49,
-47,
-47,
-38,
-43,
-39,
-29,
-27,
-38,
-41,
-27,
-33,
-32,
-43,
-39,
-40,
-27,
-31,
-36,
-41,
-26,
-37,
-31,
-38,
-28,
-27,
-35,
-42,
-37,
-30,
-33,
-35,
-39,
-44,
-39,
-45,
-31,
-40,
-41,
-36,
-27,
-41,
-30,
-30,
-39,
-38,
-25,
-29,
-31,
-29,
-36,
-24,
-23,
-28,
-38,
-39,
-23,
-32,
-38,
-28,
-24,
-25,
-35,
-28,
-31,
-31,
-39,
-50,
-36,
-48,
-37,
-37,
-50,
-38,
-33,
-32,
-35,
-30,
-35,
-39,
-27,
-34,
-37,
-38,
-46,
-39,
-32,
-45,
-46,
-30,
-42,
-30,
-27,
-34,
-37,
-29,
-24,
-31,
-27,
-33,
-30,
-24,
-23,
-38,
-25,
-30,
-40,
-29,
-36,
-44,
-48,
-34,
-40,
-47,
-43,
-37,
-34,
-33,
-44,
-40,
-42,
-27,
-32,
-25,
-30,
-33,
-23,
-36,
-34,
-24,
-34,
-26,
-25,
-35,
-38,
-27,
-28,
-34,
-31,
-35,
-38,
-43,
-36,
-30,
-31,
-35,
-31,
-29,
-28,
-32,
-29,
-41,
-47,
-34,
-48,
-36,
-40,
-33,
-30,
-43,
-29,
-29,
-39,
-38,
-30,
-27,
-36,
-36,
-37,
-43,
-44,
-32,
-40,
-34,
-28,
-34,
-38,
-37,
-36,
-34,
-32,
-29,
-42,
-39,
-38,
-39,
-46,
-35,
-50,
-38,
-31,
-43,
-34,
-43,
-29,
-43,
-28,
-42,
-37,
-26,
-38,
-38,
-34,
-24,
-36,
-37,
-30,
-34,
-24,
-22,
-29,
-21,
-27,
-33,
-37,
-38,
-42,
-40,
-31,
-32,
-32,
-32,
-43,
-46,
-46,
-34,
-49,
-50,
-40,
-35,
-47,
-36,
-35,
-44,
-42,
-47,
-31,
-45,
-34,
-43,
-39,
-32,
-36,
-30,
-30,
-35,
-41,
-38,
-42,
-31,
-29,
-41,
-38,
-40,
-32,
-44,
-43,
-39,
-38,
-42,
-41,
-31,
-30,
-46,
-46,
-33,
-37,
-40,
-48,
-46,
-51,
-37,
-39,
-43,
-50,
-41,
-43,
-41,
-44,
-32,
-31,
-37,
-41,
-33,
-28,
-31,
-29,
-42,
-46,
-39,
-51,
-40,
-47,
-52,
-43,
-38,
-51,
-38,
-37,
-47,
-44,
-35,
-37,
-39,
-46,
-53,
-39,
-43,
-45,
-55,
-52,
-37,
-38,
-50,
-37,
-38,
-31,
-46,
-33,
-33,
-35,
-35,
-47,
-32,
-46,
-34,
-35,
-50,
-41,
-35,
-34,
-41,
-34,
-34,
-43,
-32,
-36,
-38,
-40,
-44,
-38,
-34,
-47,
-49,
-34,
-46,
-39,
-37,
-49,
-54,
-47,
-37,
-42,
-36,
-44,
-44,
-36,
-35,
-45,
-35,
-38,
-42,
-30,
-38,
-42,
-45,
-31,
-35,
-40,
-38,
-31,
-33,
-32,
-46,
-45,
-47,
-34,
-37,
-33,
-42,
-38,
-31,
-44,
-46,
-31,
-39,
-35,
-34,
-45,
-46,
-37,
-37,
-37,
-40,
-42,
-45,
-43,
-38,
-33,
-34,
-33,
-29,
-32,
-27,
-33,
-26,
-38,
-40,
-29,
-42,
-37,
-42,
-39,
-40,
-54,
-38,
-38,
-51,
-46,
-37,
-35,
-46,
-39,
-42,
-41,
-46,
-31,
-44,
-46,
-40,
-39,
-50,
-46,
-46,
-43,
-41,
-35,
-46,
-42,
-39,
-39,
-41,
-33,
-47,
-34,
-33,
-43,
-36,
-45,
-34,
-45,
-30,
-42,
-41,
-31,
-47,
-47,
-47,
-40,
-48,
-56,
-50,
-46,
-37,
-36,
-44,
-31,
-38,
-33,
-41,
-38,
-39,
-41,
-30,
-26,
-29,
-27,
-39,
-38,
-40,
-27,
-38,
-41,
-34,
-27,
-40,
-29,
-29,
-35,
-39,
-45,
-31,
-43,
-37,
-44,
-43,
-35,
-31,
-27,
-34,
-42,
-49,
-50,
-50,
-37,
-36,
-48,
-44,
-39,
-33,
-44,
-44,
-38,
-39,
-39,
-36,
-26,
-26,
-40,
-37,
-24,
-25,
-33,
-35,
-35,
-47,
-33,
-34,
-37,
-46,
-40,
-39,
-44,
-48,
-40,
-38,
-45,
-43,
-35,
-36,
-38,
-33,
-47,
-46,
-34,
-46,
-36,
-34,
-43,
-33,
-32,
-46,
-35,
-34,
-47,
-44,
-36,
-35,
-34,
-41,
-46,
-32,
-34,
-30,
-42,
-42,
-36,
-38,
-50,
-38,
-44,
-38,
-51,
-36,
-36,
-42,
-37,
-50,
-37,
-49,
-35,
-38,
-46,
-39,
-30,
-32,
-40,
-33,
-31,
-46,
-36,
-40,
-43,
-44,
-42,
-34,
-35,
-47,
-51,
-39,
-46,
-45,
-40,
-53,
-55,
-48,
-35,
-38,
-35,
-44,
-48,
-42,
-38,
-45,
-42,
-44,
-41,
-31,
-42,
-40,
-42,
-32,
-32,
-35,
-32,
-27,
-27,
-28,
-43,
-45,
-43,
-33,
-31,
-29,
-39,
-30,
-29,
-35,
-40,
-31,
-37,
-40,
-43,
-53,
-54,
-47,
-46,
-39,
-47,
-48,
-50,
-47,
-43,
-36,
-35,
-31,
-28,
-36,
-32,
-41,
-34,
-47,
-49,
-33,
-36,
-32,
-26,
-24,
-27,
-39,
-30,
-31,
-46,
-41,
-38,
-38,
-54,
-51,
-51,
-46,
-49,
-38,
-45,
-51,
-45,
-39,
-52,
-41,
-39,
-45,
-42,
-36,
-47,
-45,
-43,
-44,
-42,
-34,
-49,
-34,
-34,
-39,
-32,
-42,
-36,
-43,
-30,
-37,
-42,
-27,
-43,
-39,
-43,
-34,
-39,
-47,
-44,
-37,
-34,
-36,
-48,
-36,
-51,
-46,
-58,
-53,
-55,
-60,
-49,
-43,
-48,
-44,
-53,
-52,
-51,
-37,
-45,
-47,
-42,
-31,
-46,
-32,
-31,
-36,
-36,
-42,
-32,
-42,
-39,
-48,
-46,
-43,
-35,
-34,
-41,
-46,
-48,
-52,
-50,
-39,
-44,
-57,
-58,
-49,
-51,
-56,
-56,
-47,
-52,
-46,
-43,
-35,
-35,
-46,
-42,
-34,
-33,
-45,
-43,
-41,
-52,
-38,
-35,
-36,
-42,
-42,
-35,
-45,
-46,
-43,
-43,
-50,
-44,
-40,
-46,
-50,
-44,
-61,
-62,
-47,
-59,
-54,
-48,
-58,
-39,
-39,
-46,
-32,
-29,
-36,
-33,
-32,
-31,
-31,
-43,
-46,
-33,
-39,
-31,
-42,
-38,
-34,
-31,
-44,
-34,
-44,
-37,
-52,
-38,
-36,
-43,
-35,
-47,
-36,
-47,
-30,
-35,
-41,
-39,
-31,
-33,
-45,
-40,
-36,
-51,
-43,
-47,
-48,
-49,
-42,
-32,
-36,
-39,
-40,
-30,
-32,
-34,
-30,
-45,
-47,
-47,
-33,
-35,
-33,
-40,
-47,
-41,
-38,
-39,
-42,
-48,
-44,
-40,
-53,
-49,
-52,
-48,
-43,
-46,
-44,
-38,
-40,
-39,
-51,
-52,
-46,
-40,
-36,
-39,
-48,
-37,
-40,
-42,
-50,
-37,
-36,
-41,
-40,
-49,
-47,
-42,
-42,
-33,
-48,
-48,
-50,
-47,
-52,
-48,
-49,
-40,
-39,
-49,
-40,
-48,
-39,
-50,
-49,
-40,
-38,
-40,
-33,
-32,
-34,
-42,
-31,
-30,
-46,
-36,
-32,
-32,
-48,
-46,
-48,
-38,
-45,
-35,
-39,
-49,
-43,
-34,
-51,
-39,
-42,
-55,
-53,
-50,
-58,
-56,
-54,
-51,
-43,
-38,
-50,
-37,
-39,
-39,
-36,
-43,
-44,
-51,
-43,
-50,
-57,
-43,
-55,
-48,
-54,
-45,
-40,
-51,
-52,
-40,
-40,
-46,
-55,
-44,
-56,
-42,
-53,
-46,
-48,
-55,
-52,
-44,
-53,
-54,
-58,
-58,
-57,
-50,
-52,
-56,
-54,
-40,
-52,
-38,
-36,
-36,
-34,
-40,
-36,
-39,
-45,
-48,
-48,
-46,
-36,
-34,
-45,
-50,
-50,
-53,
-49,
-40,
-47,
-55,
-55,
-43,
-47,
-48,
-48,
-42,
-51,
-46,
-41,
-39,
-42,
-51,
-45,
-40,
-38,
-51,
-43,
-41,
-54,
-47,
-40,
-42,
-46,
-50,
-37,
-49,
-45,
-44,
-41,
-46,
-38,
-34,
-43,
-47,
-37,
-53,
-51,
-37,
-48,
-49,
-40,
-53,
-39,
-45,
-50,
-40,
-40,
-47,
-44,
-47,
-43,
-45,
-55,
-55,
-45,
-50,
-39,
-49,
-46,
-50,
-42,
-52,
-42,
-54,
-45,
-56,
-42,
-40,
-50,
-39,
-50,
-43,
-52,
-42,
-47,
-48,
-51,
-43,
-45,
-56,
-51,
-43,
-57,
-53,
-57,
-57,
-57,
-47,
-39,
-47,
-46,
-51,
-44,
-42,
-51,
-41,
-55,
-54,
-55,
-39,
-38,
-36,
-39,
-48,
-45,
-40,
-35,
-40,
-41,
-31,
-33,
-45,
-37,
-42,
-45,
-40,
-46,
-43,
-46,
-49,
-50,
-58,
-59,
-54,
-51,
-41,
-44,
-53,
-37,
-44,
-41,
-48,
-40,
-38,
-47,
-47,
-51,
-51,
-50,
-50,
-36,
-50,
-49,
-49,
-41,
-47,
-45,
-46,
-33,
-34,
-48,
-40,
-54,
-47,
-58,
-59,
-55,
-52,
-60,
-49,
-49,
-51,
-54,
-43,
-40,
-53,
-42,
-39,
-40,
-54,
-53,
-56,
-42,
-46,
-39,
-39,
-50,
-48,
-34,
-50,
-38,
-41,
-56,
-56,
-52,
-58,
-57,
-56,
-54,
-43,
-43,
-51,
-39,
-43,
-40,
-38,
-43,
-46,
-47,
-41,
-45,
-56,
-44,
-54,
-48,
-56,
-50,
-41,
-50,
-51,
-34,
-37,
-40,
-46,
-36,
-48,
-36,
-46,
-42,
-46,
-54,
-52,
-43,
-54,
-54,
-57,
-57,
-55,
-52,
-49,
-54,
-58,
-50,
-60,
-55,
-51,
-49,
-49,
-54,
-54,
-51,
-56,
-54,
-55,
-54,
-39,
-41,
-55,
-56,
-55,
-57,
-50,
-40,
-47,
-53,
-55,
-42,
-53,
-53,
-56,
-46,
-59,
-49,
-47,
-47,
-52,
-55,
-50,
-50,
-43,
-56,
-44,
-42,
-54,
-51,
-44,
-43,
-46,
-52,
-39,
-52,
-48,
-53,
-53,
-55,
-40,
-38,
-45,
-49,
-39,
-51,
-51,
-38,
-50,
-56,
-43,
-55,
-45,
-53,
-52,
-43,
-45,
-43,
-40,
-47,
-42,
-43,
-57,
-55,
-50,
-57,
-46,
-54,
-52,
-58,
-50,
-55,
-49,
-58,
-50,
-57,
-45,
-43,
-52,
-39,
-44,
-43,
-49,
-42,
-50,
-49,
-54,
-49,
-50,
-56,
-52,
-40,
-53,
-51,
-55,
-55,
-55,
-46,
-44,
-53,
-49,
-52,
-53,
-48,
-62,
-55,
-67,
-62,
-66,
-53,
-48,
-47,
-47,
-58,
-57,
-55,
-46,
-54,
-54,
-39,
-40,
-49,
-36,
-38,
-42,
-36,
-37,
-38,
-45,
-46,
-50,
-55,
-55,
-50,
-54,
-45,
-50,
-57,
-41,
-52,
-46,
-56,
-55,
-50,
-66,
-63,
-62,
-59,
-57,
-55,
-38,
-53,
-51,
-49,
-40,
-49,
-49,
-51,
-35,
-37,
-49,
-39,
-48,
-40,
-50,
-46,
-47,
-38,
-50,
-39,
-43,
-47,
-44,
-47,
-46,
-54,
-43,
-42,
-42,
-52,
-50,
-49,
-35,
-39,
-38,
-37,
-52,
-52,
-38,
-54,
-45,
-46,
-61,
-62,
-57,
-55,
-55,
-55,
-51,
-36,
-40,
-43,
-39,
-49,
-41,
-42,
-44,
-50,
-46,
-44,
-43,
-54,
-50,
-56,
-49,
-62,
-59,
-49,
-57,
-63,
-49,
-54,
-59,
-61,
-51,
-60,
-45,
-53,
-46,
-47,
-56,
-56,
-47,
-59,
-56,
-61,
-58,
-56,
-57,
-50,
-56,
-59,
-50,
-55,
-50,
-47,
-40,
-39,
-43,
-50,
-45,
-56,
-54,
-55,
-56,
-42,
-44,
-54,
-52,
-49,
-53,
-47,
-43,
-52,
-55,
-56,
-42,
-54,
-49,
-50,
-44,
-57,
-47,
-46,
-49,
-51,
-50,
-42,
-44,
-36,
-46,
-32,
-31,
-42,
-43,
-37,
-36,
-42,
-55,
-40,
-56,
-50,
-58,
-58,
-62,
-49,
-49,
-61,
-63,
-53,
-61,
-58,
-48,
-51,
-59,
-45,
-55,
-46,
-57,
-50,
-49,
-50,
-46,
-44,
-53,
-48,
-48,
-57,
-54,
-51,
-54,
-39,
-42,
-37,
-46,
-37,
-43,
-44,
-60,
-55,
-63,
-58,
-63,
-73,
-60,
-63,
-66,
-64,
-55,
-58,
-49,
-54,
-48,
-49,
-53,
-54,
-42,
-53,
-54,
-55,
-54,
-54,
-39,
-39,
-51,
-39,
-43,
-48,
-40,
-54,
-48,
-55,
-52,
-56,
-48,
-43,
-46,
-45,
-60,
-60,
-58,
-46,
-58,
-58,
-41,
-48,
-52,
-39,
-42,
-54,
-46,
-45,
-46,
-49,
-48,
-50,
-48,
-48,
-43,
-51,
-41,
-51,
-53,
-38,
-52,
-39,
-48,
-48,
-38,
-52,
-52,
-48,
-46,
-52,
-52,
-39,
-52,
-53,
-50,
-48,
-60,
-61,
-64,
-50,
-54,
-64,
-55,
-59,
-56,
-55,
-51,
-54,
-39,
-52,
-39,
-47,
-54,
-46,
-56,
-55,
-61,
-51,
-53,
-53,
-60,
-59,
-58,
-42,
-44,
-48,
-40,
-54,
-56,
-42,
-55,
-44,
-47,
-62,
-64,
-63,
-61,
-67,
-66,
-69,
-52,
-58,
-55,
-53,
-57,
-48,
-51,
-46,
-58,
-46,
-47,
-38,
-50,
-44,
-45,
-36,
-49,
-50,
-39,
-45,
-54,
-39,
-47,
-52,
-53,
-48,
-55,
-42,
-49,
-46,
-50,
-59,
-66,
-57,
-66,
-65,
-58,
-55,
-51,
-57,
-44,
-46,
-55,
-52,
-55,
-57,
-54,
-44,
-43,
-40,
-50,
-34,
-47,
-40,
-42,
-49,
-35,
-40,
-55,
-54,
-48,
-53,
-45,
-44,
-52,
-48,
-49,
-37,
-51,
-43,
-44,
-38,
-51,
-41,
-39,
-49,
-56,
-52,
-49,
-58,
-50,
-58,
-44,
-41,
-48,
-52,
-44,
-39,
-40,
-52,
-37,
-52,
-45,
-56,
-55,
-55,
-44,
-45,
-59,
-59,
-54,
-58,
-57,
-53,
-58,
-72,
-63,
-72,
-78,
-93,
-85,
-90,
-94,
-91,
-96,
-112,
-110,
-113,
-125,
-121,
-124,
-134,
-124,
-128,
-128,
-144,
-137,
-139,
-144,
-152,
-151,
-150,
-150,
-154,
-164,
-153,
-157,
-167,
-166,
-169,
-172,
-164,
-174,
-175,
-176,
-176,
-179,
-168,
-172,
-177,
-171,
-167,
-164,
-147,
-146,
-156,
-136,
-138,
-144,
-131,
-144,
-137,
-138,
-132,
-134,
-127,
-114,
-114,
-107,
-112,
-112,
-109,
-90,
-103,
-97,
-77,
-86,
-86,
-72,
-70,
-81,
-71,
-66,
-66,
-71,
-68,
-68,
-63,
-64,
-58,
-72,
-63,
-74,
-74,
-61,
-71,
-57,
-64,
-69,
-55,
-70,
-71,
-67,
-66,
-78,
-82,
-71,
-84,
-88,
-86,
-79,
-93,
-100,
-103,
-91,
-96,
-107,
-104,
-112,
-112,
-116,
-115,
-127,
-118,
-137,
-129,
-138,
-147,
-135,
-147,
-146,
-144,
-138,
-146,
-147,
-150,
-154,
-155,
-146,
-147,
-155,
-147,
-158,
-160,
-149,
-151,
-144,
-143,
-154,
-154,
-152,
-145,
-147,
-148,
-148,
-134,
-146,
-138,
-141,
-146,
-130,
-135,
-130,
-141,
-126,
-134,
-117,
-122,
-123,
-112,
-101,
-107,
-108,
-93,
-93,
-99,
-84,
-91,
-91,
-84,
-82,
-78,
-67,
-67,
-64,
-64,
-70,
-82,
-74,
-81,
-81,
-73,
-72,
-72,
-82,
-67,
-71,
-82,
-83,
-80,
-84,
-83,
-73,
-70,
-69,
-83,
-69,
-84,
-77,
-81,
-87,
-77,
-87,
-98,
-96,
-92,
-98,
-92,
-100,
-109,
-104,
-108,
-99,
-116,
-105,
-108,
-105,
-117,
-112,
-114,
-127,
-133,
-127,
-126,
-145,
-139,
-146,
-135,
-134,
-138,
-146,
-140,
-136,
-133,
-146,
-134,
-143,
-135,
-146,
-145,
-141,
-128,
-134,
-146,
-143,
-136,
-135,
-129,
-128,
-121,
-134,
-120,
-123,
-118,
-127,
-113,
-116,
-119,
-111,
-111,
-124,
-118,
-120,
-123,
-114,
-119,
-118,
-108,
-103,
-101,
-117,
-105,
-102,
-106,
-110,
-104,
-95,
-94,
-90,
-90,
-81,
-75,
-87,
-79,
-85,
-88,
-75,
-87,
-89,
-91,
-91,
-97,
-91,
-93,
-102,
-101,
-100,
-101,
-91,
-95,
-107,
-95,
-98,
-113,
-102,
-115,
-113,
-112,
-106,
-111,
-111,
-103,
-109,
-103,
-112,
-118,
-119,
-107,
-122,
-120,
-110,
-124,
-123,
-110,
-109,
-122,
-114,
-106,
-107,
-114,
-116,
-118,
-111,
-116,
-112,
-128,
-119,
-132,
-129,
-121,
-134,
-120,
-127,
-139,
-125,
-138,
-136,
-125,
-123,
-129,
-127,
-114,
-122,
-121,
-116,
-109,
-117,
-122,
-119,
-107,
-112,
-116,
-118,
-118,
-119,
-114,
-109,
-120,
-103,
-116,
-103,
-110,
-113,
-97,
-107,
-104,
-98,
-94,
-98,
-100,
-95,
-98,
-99,
-91,
-89,
-101,
-93,
-103,
-110,
-101,
-102,
-99,
-99,
-109,
-109,
-109,
-98,
-102,
-102,
-103,
-93,
-106,
-98,
-107,
-114,
-100,
-109,
-100,
-116,
-100,
-111,
-100,
-110,
-117,
-109,
-108,
-117,
-128,
-114,
-115,
-120,
-110,
-117,
-118,
-109,
-112,
-108,
-101,
-102,
-102,
-101,
-107,
-118,
-116,
-117,
-117,
-108,
-107,
-107,
-119,
-104,
-106,
-118,
-118,
-108,
-116,
-114,
-106,
-104,
-102,
-115,
-100,
-113,
-104,
-106,
-113,
-106,
-109,
-114,
-107,
-98,
-100,
-94,
-102,
-109,
-99,
-102,
-100,
-112,
-98,
-96,
-97,
-103,
-96,
-95,
-107,
-110,
-99,
-99,
-115,
-111,
-111,
-99,
-97,
-94,
-105,
-99,
-96,
-92,
-106,
-100,
-108,
-104,
-118,
-121,
-117,
-107,
-116,
-122,
-121,
-117,
-110,
-108,
-111,
-103,
-115,
-107,
-104,
-108,
-115,
-98,
-108,
-111,
-100,
-100,
-110,
-109,
-108,
-109,
-102,
-112,
-114,
-109,
-102,
-102,
-117,
-112,
-103,
-115,
-118,
-118,
-108,
-115,
-117,
-117,
-111,
-102,
-116,
-107,
-114,
-114,
-101,
-112,
-114,
-113,
-103,
-106,
-101,
-95,
-105,
-100,
-97,
-96,
-87,
-92,
-99,
-84,
-83,
-99,
-88,
-99,
-101,
-96,
-92,
-103,
-108,
-104,
-112,
-105,
-110,
-116,
-119,
-104,
-118,
-111,
-101,
-112,
-106,
-97,
-93,
-106,
-102,
-96,
-99,
-107,
-108,
-110,
-99,
-103,
-99,
-114,
-109,
-116,
-108,
-105,
-115,
-103,
-106,
-120,
-110,
-123,
-124,
-115,
-114,
-124,
-122,
-117,
-120,
-119,
-116,
-112,
-119,
-127,
-126,
-118,
-121,
-122,
-124,
-120,
-123,
-115,
-112,
-123,
-109,
-120,
-110,
-115,
-114,
-98,
-107,
-105,
-94,
-94,
-101,
-104,
-95,
-103,
-103,
-103,
-102,
-118,
-107,
-113,
-118,
-114,
-106,
-107,
-105,
-109,
-111,
-110,
-98,
-99,
-100,
-99,
-90,
-102,
-87,
-99,
-103,
-89,
-100,
-92,
-107,
-91,
-106,
-90,
-96,
-104,
-90,
-88,
-94,
-103,
-93,
-89,
-99,
-98,
-108,
-108,
-102,
-112,
-107,
-109,
-100,
-102,
-101,
-100,
-113,
-113,
-113,
-113,
-104,
-104,
-103,
-118,
-103,
-104,
-117,
-123,
-111,
-121,
-120,
-114,
-113,
-105,
-118,
-101,
-111,
-100,
-102,
-109,
-106,
-111,
-112,
-107,
-103,
-108,
-107,
-122,
-128,
-116,
-122,
-122,
-130,
-115,
-114,
-117,
-117,
-109,
-109,
-117,
-116,
-100,
-101,
-112,
-107,
-103,
-99,
-100,
-93,
-107,
-106,
-102,
-96,
-106,
-102,
-105,
-99,
-110,
-114,
-105,
-103,
-110,
-118,
-115,
-118,
-107,
-106,
-114,
-101,
-112,
-104,
-99,
-109,
-113,
-97,
-109,
-110,
-99,
-100,
-110,
-109,
-111,
-105,
-98,
-110,
-107,
-106,
-93,
-96,
-106,
-101,
-91,
-102,
-103,
-102,
-91,
-103,
-104,
-103,
-102,
-94,
-110,
-101,
-115,
-113,
-101,
-113,
-119,
-120,
-111,
-118,
-115,
-107,
-116,
-108,
-105,
-104,
-101,
-110,
-115,
-104,
-102,
-119,
-111,
-118,
-119,
-109,
-104,
-109,
-117,
-109,
-114,
-104,
-106,
-112,
-117,
-107,
-118,
-114,
-107,
-118,
-110,
-105,
-101,
-114,
-114,
-108,
-112,
-120,
-120,
-122,
-114,
-113,
-113,
-125,
-121,
-122,
-111,
-112,
-117,
-104,
-104,
-120,
-112,
-113,
-113,
-100,
-95,
-104,
-101,
-100,
-99,
-98,
-97,
-98,
-104,
-114,
-114,
-113,
-115,
-112,
-116,
-111,
-117,
-105,
-103,
-118,
-108,
-116,
-115,
-119,
-119,
-106,
-119,
-118,
-106,
-110,
-118,
-118,
-105,
-108,
-107,
-104,
-100,
-112,
-102,
-103,
-110,
-111,
-101,
-107,
-109,
-108,
-109,
-115,
-103,
-110,
-112,
-114,
-111,
-122,
-108,
-121,
-120,
-110,
-118,
-107,
-117,
-103,
-119,
-106,
-106,
-118,
-102,
-102,
-102,
-111,
-103,
-98,
-105,
-108,
-115,
-115,
-102,
-112,
-102,
-106,
-98,
-103,
-105,
-106,
-119,
-123,
-121,
-121,
-110,
-109,
-106,
-118,
-103,
-102,
-108,
-115,
-101,
-114,
-115,
-110,
-111,
-108,
-118,
-107,
-115,
-107,
-107,
-112,
-114,
-116,
-112,
-104,
-99,
-100,
-97,
-107,
-107,
-91,
-94,
-98,
-100,
-87,
-87,
-94,
-89,
-90,
-94,
-106,
-108,
-96,
-102,
-116,
-119,
-112,
-114,
-118,
-108,
-121,
-121,
-117,
-106,
-110,
-108,
-104,
-100,
-108,
-111,
-104,
-106,
-114,
-116,
-113,
-118,
-104,
-103,
-114,
-99,
-107,
-105,
-94,
-105,
-105,
-92,
-105,
-106,
-99,
-105,
-113,
-114,
-115,
-110,
-103,
-119,
-116,
-118,
-107,
-110,
-115,
-115,
-101,
-114,
-106,
-113,
-98,
-114,
-114,
-108,
-112,
-99,
-113,
-99,
-113,
-107,
-96,
-103,
-111,
-111,
-101,
-107,
-111,
-99,
-109,
-107,
-107,
-108,
-110,
-121,
-120,
-112,
-108,
-123,
-114,
-118,
-119,
-106,
-104,
-104,
-114,
-110,
-113,
-105,
-102,
-108,
-111,
-104,
-109,
-103,
-104,
-116,
-106,
-109,
-108,
-120,
-120,
-114,
-116,
-118,
-116,
-116,
-103,
-103,
-106,
-118,
-120,
-125,
-116,
-125,
-127,
-119,
-115,
-128,
-122,
-119,
-118,
-108,
-108,
-114,
-113,
-118,
-110,
-108,
-105,
-107,
-109,
-118,
-117,
-120,
-120,
-113,
-118,
-108,
-114,
-102,
-100,
-113,
-109,
-115,
-118,
-120,
-119,
-107,
-119,
-118,
-102,
-111,
-117,
-118,
-105,
-111,
-110,
-114,
-108,
-122,
-111,
-106,
-112,
-118,
-102,
-109,
-107,
-102,
-102,
-109,
-98,
-101,
-102,
-103,
-106,
-113,
-99,
-113,
-112,
-106,
-115,
-105,
-116,
-107,
-122,
-113,
-110,
-122,
-106,
-110,
-108,
-118,
-115,
-103,
-107,
-114,
-118,
-115,
-103,
-115,
-104,
-111,
-101,
-106,
-101,
-96,
-102,
-109,
-102,
-104,
-92,
-93,
-94,
-107,
-99,
-98,
-105,
-118,
-104,
-117,
-119,
-115,
-115,
-110,
-119,
-110,
-113,
-107,
-107,
-112,
-118,
-119,
-111,
-104,
-100,
-99,
-100,
-114,
-112,
-100,
-106,
-114,
-116,
-109,
-107,
-114,
-107,
-107,
-108,
-113,
-110,
-98,
-102,
-108,
-112,
-102,
-107,
-114,
-102,
-115,
-117,
-116,
-107,
-106,
-110,
-102,
-101,
-109,
-113,
-106,
-112,
-118,
-115,
-110,
-114,
-100,
-98,
-112,
-100,
-103,
-108,
-98,
-111,
-106,
-98,
-111,
-110,
-105,
-110,
-113,
-116,
-117,
-107,
-102,
-115,
-110,
-117,
-105,
-111,
-115,
-119,
-108,
-120,
-112,
-119,
-104,
-120,
-120,
-112,
-118,
-104,
-117,
-104,
-115,
-110,
-99,
-103,
-110,
-108,
-99,
-104,
-111,
-98,
-107,
-104,
-105,
-106,
-113,
-120,
-115,
-110,
-106,
-116,
-113,
-110,
-118,
-104,
-107,
-109,
-125,
-125,
-129,
-122,
-114,
-119,
-122,
-117,
-117,
-109,
-112,
-116,
-106,
-111,
-107,
-112,
-116,
-111,
-115,
-115,
-114,
-111,
-99,
-98,
-102,
-110,
-115,
-115,
-106,
-120,
-118,
-116,
-111,
-124,
-124,
-117,
-116,
-108,
-110,
-114,
-113,
-122,
-112,
-112,
-112,
-115,
-111,
-116,
-110,
-118,
-118,
-106,
-115,
-104,
-113,
-99,
-98,
-111,
-112,
-112,
-119,
-120,
-118,
-111,
-118,
-121,
-107,
-118,
-120,
-120,
-103,
-103,
-104,
-112,
-109,
-117,
-114,
-108,
-111,
-120,
-107,
-119,
-120,
-110,
-111,
-115,
-103,
-106,
-106,
-105,
-113,
-117,
-107,
-121,
-118,
-114,
-120,
-114,
-115,
-108,
-118,
-111,
-104,
-116,
-102,
-108,
-100,
-110,
-112,
-103,
-103,
-118,
-119,
-116,
-105,
-118,
-107,
-118,
-107,
-114,
-112,
-103,
-111,
-119,
-111,
-111,
-101,
-101,
-104,
-112,
-107,
-102,
-104,
-114,
-99,
-111,
-114,
-113,
-114,
-110,
-114,
-111,
-112,
-110,
-111,
-114,
-125,
-127,
-116,
-111,
-111,
-110,
-113,
-126,
-120,
-112,
-113,
-126,
-121,
-115,
-112,
-120,
-109,
-113,
-116,
-118,
-114,
-105,
-108,
-112,
-114,
